Classification: Basic Concepts and Techniques
…
Some splits use multiple values. Building the tree will become extremely slow if a factor has many levels (different values) since the tree has to check all possible splits into two subsets. This situation should be avoided.

Converting type into a set of 0-1 dummy variables using class2ind.

artists_train_dummy <- as_tibble(class2ind(artists_train$book)) |> 
  mutate(across(everything(), as.factor)) |>
  add_column(artist_unique_id = artists_train$artist_unique_id)
artists_train_dummy

# A tibble: 2,484 × 3
   Gardner Janson artist_unique_id
   <fct>   <fct>             <dbl>
 1 1       0                     2
 2 1       0                     2
 3 1       0                     2
 4 1       0                     2
 5 1       0                     4
 6 1       0                     4
 7 1       0                     6
 8 1       0                     6
 9 1       0                     6
10 1       0                     6
# ℹ 2,474 more rows
…
